{
  "SignalSource": "santa_cruz:inverter",
  "MacAddress": "b8:27:eb:22:81:5e",
  "MeasuredData": {
    "L1RMSVolt": 128,
    "L1RMSAmp": 9.6,
    "L2RMSVolt": 128,
    "L2RMSAmp": 9.6
  },
  "PowerUnCal": {
    "Serial": 34,
    "Timestamp": "2020-05-22T13:40:29.226622263-07:00",
    "PhaseDegree": [
      4.5576334,
      8.416928,
      13.084831,
      12.65921
    ],
    "PhaseDegreeNormalized": [
      0,
      0,
      8.527198,
      4.242282
    ],
    "Power": [
      77810.04,
      73695.82,
      10111.499,
      10849.011
    ],
    "CrossPower": [
      27738.387,
      28196.377
    ],
    "V1Index": 0,
    "V2Index": 1,
    "I1Index": 2,
    "I2Index": 3,
    "CrossP1Index": 0,
    "CrossP2Index": 1
  },
  "ScaleL1Voltage": 0.45887262,
  "ScaleL2Voltage": 0.47150743,
  "ScaleL1Current": 0.095469244,
  "ScaleL2Current": 0.092167154
}